%YAML 1.1
%TAG !u! tag:unity3d.com,2011:
--- !u!74 &7400000
AnimationClip:
  m_ObjectHideFlags: 0
  m_CorrespondingSourceObject: {fileID: 0}
  m_PrefabInternal: {fileID: 0}
  m_Name: BombayThrow
  serializedVersion: 6
  m_Legacy: 0
  m_Compressed: 0
  m_UseHighQualityCurve: 1
  m_RotationCurves: []
  m_CompressedRotationCurves: []
  m_EulerCurves: []
  m_PositionCurves: []
  m_ScaleCurves: []
  m_FloatCurves: []
  m_PPtrCurves:
  - curve:
    - time: 0
      value: {fileID: 21300000, guid: 84443cd3b34cf6d4ebaa723068873801, type: 3}
    - time: 0.016666668
      value: {fileID: 21300000, guid: 296232366a4b2b94cb1b5d96b9f0aafc, type: 3}
    - time: 0.033333335
      value: {fileID: 21300000, guid: 1bb11fb880fa36148b5f4b5849cf36f9, type: 3}
    - time: 0.05
      value: {fileID: 21300000, guid: 4844045a5d115d3459ea09b7e08496ed, type: 3}
    - time: 0.06666667
      value: {fileID: 21300000, guid: a34a5a354309cdb4e8d2d3a1bff72436, type: 3}
    - time: 0.083333336
      value: {fileID: 21300000, guid: b353a4bb01489654faa15204b537c68c, type: 3}
    - time: 0.1
      value: {fileID: 21300000, guid: d22bb0265c6728d40965a968c4bd86e4, type: 3}
    - time: 0.11666667
      value: {fileID: 21300000, guid: 08522ac6df499794ea5e6a15a476002a, type: 3}
    - time: 0.13333334
      value: {fileID: 21300000, guid: 5af508588a9c0ca44a43baca38724bf2, type: 3}
    - time: 0.15
      value: {fileID: 21300000, guid: dd0962221b422144cbca8ce57e1e8bd5, type: 3}
    - time: 0.16666667
      value: {fileID: 21300000, guid: 7c135f28e8043b646ba7e1a0e8ae21a1, type: 3}
    - time: 0.18333334
      value: {fileID: 21300000, guid: 16a0cdb48b42f4b4792af053d9b5a17c, type: 3}
    - time: 0.2
      value: {fileID: 21300000, guid: 1ddd04fe173d63643ac9d37e03e9c010, type: 3}
    - time: 0.21666667
      value: {fileID: 21300000, guid: a355de4439f9bee45b39554fd320c978, type: 3}
    - time: 0.23333333
      value: {fileID: 21300000, guid: 21562c4ba31b4a8498d80c1674ae75f8, type: 3}
    - time: 0.25
      value: {fileID: 21300000, guid: dace536efa197ab4295df1cce3ad4f6d, type: 3}
    - time: 0.26666668
      value: {fileID: 21300000, guid: 3a63644a743a04c41b8d7c8bc41e3362, type: 3}
    - time: 0.28333336
      value: {fileID: 21300000, guid: 0de0778bf3e90ff489b8c3ce334aac2e, type: 3}
    - time: 0.30000004
      value: {fileID: 21300000, guid: e54b2ebe50d18284ba116bb62ca00d23, type: 3}
    - time: 0.31666672
      value: {fileID: 21300000, guid: 67790955cdb5f074a8ab789f9074f2c4, type: 3}
    - time: 0.3333334
      value: {fileID: 21300000, guid: 11ce2c9ea50f9cb48ae85c7bb9339a12, type: 3}
    - time: 0.35000008
      value: {fileID: 21300000, guid: 640b5c186653c6240ac33ecf0729d733, type: 3}
    - time: 0.36666676
      value: {fileID: 21300000, guid: 7fabdc386c9cfd641a610ffced5b0fce, type: 3}
    - time: 0.38333344
      value: {fileID: 21300000, guid: 37c9bf671c40ea4449ed7df33e2a063c, type: 3}
    - time: 0.40000013
      value: {fileID: 21300000, guid: 9e73688b2ab5f78408a431775cd3beeb, type: 3}
    - time: 0.4166668
      value: {fileID: 21300000, guid: 60f0b5a6cfc4fcd44ac700857ff8cb96, type: 3}
    - time: 0.4333335
      value: {fileID: 21300000, guid: ec96a9fb164094947bc5062f2381baec, type: 3}
    - time: 0.45000017
      value: {fileID: 21300000, guid: ef3fe791e6616594b9f5c3a1b2fe3127, type: 3}
    - time: 0.46666685
      value: {fileID: 21300000, guid: 296c457146913934d83f3e7bf876d88f, type: 3}
    - time: 0.48333353
      value: {fileID: 21300000, guid: e77908c367aee8d4a8cacde7e299aa6d, type: 3}
    - time: 0.5000002
      value: {fileID: 21300000, guid: dd067ecade67a0a44b925e60483ea02e, type: 3}
    - time: 0.5166668
      value: {fileID: 21300000, guid: 6dcd7c25525f6c74bb4d4cd4bb38dcd7, type: 3}
    - time: 0.5333335
      value: {fileID: 21300000, guid: 821d6b99d40d1504080d5e40181b30c1, type: 3}
    - time: 0.55000013
      value: {fileID: 21300000, guid: 64291b6cc49deaf4b953501910a56e2e, type: 3}
    - time: 0.5666668
      value: {fileID: 21300000, guid: edec941fd73d85b4080bfff4b772d518, type: 3}
    - time: 0.58333343
      value: {fileID: 21300000, guid: 8537d1fb33508c547ab3defbaef8e76c, type: 3}
    - time: 0.6000001
      value: {fileID: 21300000, guid: f1ab5b99259b66c4da199fe60530fab9, type: 3}
    - time: 0.61666673
      value: {fileID: 21300000, guid: 77c847c70ba7bd84d860dc6f1b8a2448, type: 3}
    - time: 0.6333334
      value: {fileID: 21300000, guid: b6d741401c5c6b84eae4b65fb1b567a8, type: 3}
    - time: 0.65000004
      value: {fileID: 21300000, guid: 453280da0f1ea2849b96dd5f99138949, type: 3}
    - time: 0.6666667
      value: {fileID: 21300000, guid: 06332e838cc2dcc43a9c53aea5144b22, type: 3}
    - time: 0.68333334
      value: {fileID: 21300000, guid: 045968208dee43e45b97065f3c6aa5ef, type: 3}
    - time: 0.7
      value: {fileID: 21300000, guid: eb78e43c2579a1541a7abeb53a0eb512, type: 3}
    - time: 0.71666664
      value: {fileID: 21300000, guid: f2a554e4c1cf93441a3a750c4bbf39a7, type: 3}
    - time: 0.7333333
      value: {fileID: 21300000, guid: a3d6fab981f16d740bc7bef82da225da, type: 3}
    - time: 0.74999994
      value: {fileID: 21300000, guid: 911fe9cf4ec822948baa0b0a1464d9b3, type: 3}
    - time: 0.7666666
      value: {fileID: 21300000, guid: 7f271c834ec207f4f9f7d9d2d66b9954, type: 3}
    - time: 0.78333324
      value: {fileID: 21300000, guid: 0a066ee1673c7e649982291badfec7c4, type: 3}
    - time: 0.7999999
      value: {fileID: 21300000, guid: de467083e2860a2488aa8f4a99a81ca2, type: 3}
    - time: 0.81666654
      value: {fileID: 21300000, guid: ea9ce5ca650d6034b8cf987c18e0b832, type: 3}
    - time: 0.8333332
      value: {fileID: 21300000, guid: 175dc686747528147914a8315d50b562, type: 3}
    - time: 0.84999985
      value: {fileID: 21300000, guid: c2ebf535e10df394c91ffcc413949ed2, type: 3}
    - time: 0.8666665
      value: {fileID: 21300000, guid: 34a152d1609862b42b9a9322bb455e96, type: 3}
    - time: 0.88333315
      value: {fileID: 21300000, guid: 9d3bf0e59885f8c489e6e8a43273ddc2, type: 3}
    - time: 0.8999998
      value: {fileID: 21300000, guid: 5701c53852e227746903aec0228ac210, type: 3}
    - time: 0.91666645
      value: {fileID: 21300000, guid: 4bc346d8a32a1ff44bf950f320f5f08f, type: 3}
    - time: 0.9333331
      value: {fileID: 21300000, guid: b982085aee0ca974788037fcd4e27fb2, type: 3}
    - time: 0.94999975
      value: {fileID: 21300000, guid: 4a901232b5a75d54f98cf4ffedcc400f, type: 3}
    - time: 0.9666664
      value: {fileID: 21300000, guid: b7f2011abe8a7d04ca65b09de7bf589d, type: 3}
    - time: 0.98333305
      value: {fileID: 21300000, guid: c2a6c0b213fafa948b6a670fec2b184c, type: 3}
    - time: 0.9999997
      value: {fileID: 21300000, guid: 0a3e3fc22fd6e3c4dbd39d1c86ee501c, type: 3}
    - time: 1.0166664
      value: {fileID: 21300000, guid: e1de9cbbac83e1643a683af5d3ac94ea, type: 3}
    attribute: m_Sprite
    path: 
    classID: 212
    script: {fileID: 0}
  m_SampleRate: 60
  m_WrapMode: 0
  m_Bounds:
    m_Center: {x: 0, y: 0, z: 0}
    m_Extent: {x: 0, y: 0, z: 0}
  m_ClipBindingConstant:
    genericBindings:
    - serializedVersion: 2
      path: 0
      attribute: 0
      script: {fileID: 0}
      typeID: 212
      customType: 23
      isPPtrCurve: 1
    pptrCurveMapping:
    - {fileID: 21300000, guid: 84443cd3b34cf6d4ebaa723068873801, type: 3}
    - {fileID: 21300000, guid: 296232366a4b2b94cb1b5d96b9f0aafc, type: 3}
    - {fileID: 21300000, guid: 1bb11fb880fa36148b5f4b5849cf36f9, type: 3}
    - {fileID: 21300000, guid: 4844045a5d115d3459ea09b7e08496ed, type: 3}
    - {fileID: 21300000, guid: a34a5a354309cdb4e8d2d3a1bff72436, type: 3}
    - {fileID: 21300000, guid: b353a4bb01489654faa15204b537c68c, type: 3}
    - {fileID: 21300000, guid: d22bb0265c6728d40965a968c4bd86e4, type: 3}
    - {fileID: 21300000, guid: 08522ac6df499794ea5e6a15a476002a, type: 3}
    - {fileID: 21300000, guid: 5af508588a9c0ca44a43baca38724bf2, type: 3}
    - {fileID: 21300000, guid: dd0962221b422144cbca8ce57e1e8bd5, type: 3}
    - {fileID: 21300000, guid: 7c135f28e8043b646ba7e1a0e8ae21a1, type: 3}
    - {fileID: 21300000, guid: 16a0cdb48b42f4b4792af053d9b5a17c, type: 3}
    - {fileID: 21300000, guid: 1ddd04fe173d63643ac9d37e03e9c010, type: 3}
    - {fileID: 21300000, guid: a355de4439f9bee45b39554fd320c978, type: 3}
    - {fileID: 21300000, guid: 21562c4ba31b4a8498d80c1674ae75f8, type: 3}
    - {fileID: 21300000, guid: dace536efa197ab4295df1cce3ad4f6d, type: 3}
    - {fileID: 21300000, guid: 3a63644a743a04c41b8d7c8bc41e3362, type: 3}
    - {fileID: 21300000, guid: 0de0778bf3e90ff489b8c3ce334aac2e, type: 3}
    - {fileID: 21300000, guid: e54b2ebe50d18284ba116bb62ca00d23, type: 3}
    - {fileID: 21300000, guid: 67790955cdb5f074a8ab789f9074f2c4, type: 3}
    - {fileID: 21300000, guid: 11ce2c9ea50f9cb48ae85c7bb9339a12, type: 3}
    - {fileID: 21300000, guid: 640b5c186653c6240ac33ecf0729d733, type: 3}
    - {fileID: 21300000, guid: 7fabdc386c9cfd641a610ffced5b0fce, type: 3}
    - {fileID: 21300000, guid: 37c9bf671c40ea4449ed7df33e2a063c, type: 3}
    - {fileID: 21300000, guid: 9e73688b2ab5f78408a431775cd3beeb, type: 3}
    - {fileID: 21300000, guid: 60f0b5a6cfc4fcd44ac700857ff8cb96, type: 3}
    - {fileID: 21300000, guid: ec96a9fb164094947bc5062f2381baec, type: 3}
    - {fileID: 21300000, guid: ef3fe791e6616594b9f5c3a1b2fe3127, type: 3}
    - {fileID: 21300000, guid: 296c457146913934d83f3e7bf876d88f, type: 3}
    - {fileID: 21300000, guid: e77908c367aee8d4a8cacde7e299aa6d, type: 3}
    - {fileID: 21300000, guid: dd067ecade67a0a44b925e60483ea02e, type: 3}
    - {fileID: 21300000, guid: 6dcd7c25525f6c74bb4d4cd4bb38dcd7, type: 3}
    - {fileID: 21300000, guid: 821d6b99d40d1504080d5e40181b30c1, type: 3}
    - {fileID: 21300000, guid: 64291b6cc49deaf4b953501910a56e2e, type: 3}
    - {fileID: 21300000, guid: edec941fd73d85b4080bfff4b772d518, type: 3}
    - {fileID: 21300000, guid: 8537d1fb33508c547ab3defbaef8e76c, type: 3}
    - {fileID: 21300000, guid: f1ab5b99259b66c4da199fe60530fab9, type: 3}
    - {fileID: 21300000, guid: 77c847c70ba7bd84d860dc6f1b8a2448, type: 3}
    - {fileID: 21300000, guid: b6d741401c5c6b84eae4b65fb1b567a8, type: 3}
    - {fileID: 21300000, guid: 453280da0f1ea2849b96dd5f99138949, type: 3}
    - {fileID: 21300000, guid: 06332e838cc2dcc43a9c53aea5144b22, type: 3}
    - {fileID: 21300000, guid: 045968208dee43e45b97065f3c6aa5ef, type: 3}
    - {fileID: 21300000, guid: eb78e43c2579a1541a7abeb53a0eb512, type: 3}
    - {fileID: 21300000, guid: f2a554e4c1cf93441a3a750c4bbf39a7, type: 3}
    - {fileID: 21300000, guid: a3d6fab981f16d740bc7bef82da225da, type: 3}
    - {fileID: 21300000, guid: 911fe9cf4ec822948baa0b0a1464d9b3, type: 3}
    - {fileID: 21300000, guid: 7f271c834ec207f4f9f7d9d2d66b9954, type: 3}
    - {fileID: 21300000, guid: 0a066ee1673c7e649982291badfec7c4, type: 3}
    - {fileID: 21300000, guid: de467083e2860a2488aa8f4a99a81ca2, type: 3}
    - {fileID: 21300000, guid: ea9ce5ca650d6034b8cf987c18e0b832, type: 3}
    - {fileID: 21300000, guid: 175dc686747528147914a8315d50b562, type: 3}
    - {fileID: 21300000, guid: c2ebf535e10df394c91ffcc413949ed2, type: 3}
    - {fileID: 21300000, guid: 34a152d1609862b42b9a9322bb455e96, type: 3}
    - {fileID: 21300000, guid: 9d3bf0e59885f8c489e6e8a43273ddc2, type: 3}
    - {fileID: 21300000, guid: 5701c53852e227746903aec0228ac210, type: 3}
    - {fileID: 21300000, guid: 4bc346d8a32a1ff44bf950f320f5f08f, type: 3}
    - {fileID: 21300000, guid: b982085aee0ca974788037fcd4e27fb2, type: 3}
    - {fileID: 21300000, guid: 4a901232b5a75d54f98cf4ffedcc400f, type: 3}
    - {fileID: 21300000, guid: b7f2011abe8a7d04ca65b09de7bf589d, type: 3}
    - {fileID: 21300000, guid: c2a6c0b213fafa948b6a670fec2b184c, type: 3}
    - {fileID: 21300000, guid: 0a3e3fc22fd6e3c4dbd39d1c86ee501c, type: 3}
    - {fileID: 21300000, guid: e1de9cbbac83e1643a683af5d3ac94ea, type: 3}
  m_AnimationClipSettings:
    serializedVersion: 2
    m_AdditiveReferencePoseClip: {fileID: 0}
    m_AdditiveReferencePoseTime: 0
    m_StartTime: 0
    m_StopTime: 1.0333331
    m_OrientationOffsetY: 0
    m_Level: 0
    m_CycleOffset: 0
    m_HasAdditiveReferencePose: 0
    m_LoopTime: 1
    m_LoopBlend: 0
    m_LoopBlendOrientation: 0
    m_LoopBlendPositionY: 0
    m_LoopBlendPositionXZ: 0
    m_KeepOriginalOrientation: 0
    m_KeepOriginalPositionY: 1
    m_KeepOriginalPositionXZ: 0
    m_HeightFromFeet: 0
    m_Mirror: 0
  m_EditorCurves: []
  m_EulerEditorCurves: []
  m_HasGenericRootTransform: 0
  m_HasMotionFloatCurves: 0
  m_GenerateMotionCurves: 0
  m_Events: []
