%YAML 1.1
%TAG !u! tag:unity3d.com,2011:
--- !u!74 &7400000
AnimationClip:
  m_ObjectHideFlags: 0
  m_CorrespondingSourceObject: {fileID: 0}
  m_PrefabInternal: {fileID: 0}
  m_Name: BobTailAngry
  serializedVersion: 6
  m_Legacy: 0
  m_Compressed: 0
  m_UseHighQualityCurve: 1
  m_RotationCurves: []
  m_CompressedRotationCurves: []
  m_EulerCurves: []
  m_PositionCurves: []
  m_ScaleCurves: []
  m_FloatCurves: []
  m_PPtrCurves:
  - curve:
    - time: 0
      value: {fileID: 21300000, guid: 26b2f8b81cf068a4387961424e2e0fa4, type: 3}
    - time: 0.016666668
      value: {fileID: 21300000, guid: 4a8e84fbdd8f59947996490b99662abb, type: 3}
    - time: 0.033333335
      value: {fileID: 21300000, guid: bf2d2e1673e91f846ab5efe31c259e04, type: 3}
    - time: 0.05
      value: {fileID: 21300000, guid: cce92cc54cb9433478f7c63727a79b2d, type: 3}
    - time: 0.06666667
      value: {fileID: 21300000, guid: 510bf0d030dd40246ae1afac438df578, type: 3}
    - time: 0.083333336
      value: {fileID: 21300000, guid: bbbdd355cce47ed44ab74eca3fc64479, type: 3}
    - time: 0.1
      value: {fileID: 21300000, guid: 2e1b3e91378e15d4aaa6ccf54d6878bc, type: 3}
    - time: 0.11666667
      value: {fileID: 21300000, guid: e27aa9b0627523844899c39e902f184b, type: 3}
    - time: 0.13333334
      value: {fileID: 21300000, guid: 46120c9dd30407248bc969403e9ae5cc, type: 3}
    - time: 0.15
      value: {fileID: 21300000, guid: 609f9e6ee785b43449b7c9a7f2be35f2, type: 3}
    - time: 0.16666667
      value: {fileID: 21300000, guid: 8eed97be4f227cc4eac208385cd7f17e, type: 3}
    - time: 0.18333334
      value: {fileID: 21300000, guid: 7f8c9ebc9eb0c2f44b86571faa2c211b, type: 3}
    - time: 0.2
      value: {fileID: 21300000, guid: f2610761f268d604d9e7f34fecd0b489, type: 3}
    - time: 0.21666667
      value: {fileID: 21300000, guid: b2d6a324ec6c0ec41ba219be263f6da5, type: 3}
    - time: 0.23333333
      value: {fileID: 21300000, guid: bab5318af8dfb8e45946d5b4594a98bb, type: 3}
    - time: 0.25
      value: {fileID: 21300000, guid: f2d22eb22a4d6d842b8d6f376f015763, type: 3}
    - time: 0.26666668
      value: {fileID: 21300000, guid: e0df29ce979ddd54181c919b54a1cc6d, type: 3}
    - time: 0.28333333
      value: {fileID: 21300000, guid: c9715f5aac5a30e408d8d960b1f06b5d, type: 3}
    - time: 0.3
      value: {fileID: 21300000, guid: e2698d5388c4c834cb239926f36aa13f, type: 3}
    - time: 0.31666666
      value: {fileID: 21300000, guid: 57d9027170e76164386f643254ae9870, type: 3}
    - time: 0.33333334
      value: {fileID: 21300000, guid: 8002862df7754c642a9bff5a79f183be, type: 3}
    - time: 0.35
      value: {fileID: 21300000, guid: 93da044d38ae7644588ddac0d0e571a0, type: 3}
    - time: 0.36666667
      value: {fileID: 21300000, guid: dbf0b842b3265f94997995328f337826, type: 3}
    - time: 0.38333333
      value: {fileID: 21300000, guid: 7c4be08f48849044aa4b1630c38c21ef, type: 3}
    - time: 0.4
      value: {fileID: 21300000, guid: f05d1da6b115df543973f0a1397687e7, type: 3}
    - time: 0.41666666
      value: {fileID: 21300000, guid: 7717139411ac0c34096734ecf8f345e3, type: 3}
    - time: 0.43333334
      value: {fileID: 21300000, guid: f24dd96a036e7c54382f36218398751d, type: 3}
    - time: 0.45
      value: {fileID: 21300000, guid: dd463909cbfc1994897d4582eaabdccc, type: 3}
    - time: 0.46666667
      value: {fileID: 21300000, guid: 885d1ccaa057ee84893d5dfcdc9f73fb, type: 3}
    - time: 0.48333332
      value: {fileID: 21300000, guid: c9fdd6d3502cbfc4ebdb02eb7e1ddf70, type: 3}
    attribute: m_Sprite
    path: 
    classID: 212
    script: {fileID: 0}
  m_SampleRate: 60
  m_WrapMode: 0
  m_Bounds:
    m_Center: {x: 0, y: 0, z: 0}
    m_Extent: {x: 0, y: 0, z: 0}
  m_ClipBindingConstant:
    genericBindings:
    - serializedVersion: 2
      path: 0
      attribute: 0
      script: {fileID: 0}
      typeID: 212
      customType: 23
      isPPtrCurve: 1
    pptrCurveMapping:
    - {fileID: 21300000, guid: 26b2f8b81cf068a4387961424e2e0fa4, type: 3}
    - {fileID: 21300000, guid: 4a8e84fbdd8f59947996490b99662abb, type: 3}
    - {fileID: 21300000, guid: bf2d2e1673e91f846ab5efe31c259e04, type: 3}
    - {fileID: 21300000, guid: cce92cc54cb9433478f7c63727a79b2d, type: 3}
    - {fileID: 21300000, guid: 510bf0d030dd40246ae1afac438df578, type: 3}
    - {fileID: 21300000, guid: bbbdd355cce47ed44ab74eca3fc64479, type: 3}
    - {fileID: 21300000, guid: 2e1b3e91378e15d4aaa6ccf54d6878bc, type: 3}
    - {fileID: 21300000, guid: e27aa9b0627523844899c39e902f184b, type: 3}
    - {fileID: 21300000, guid: 46120c9dd30407248bc969403e9ae5cc, type: 3}
    - {fileID: 21300000, guid: 609f9e6ee785b43449b7c9a7f2be35f2, type: 3}
    - {fileID: 21300000, guid: 8eed97be4f227cc4eac208385cd7f17e, type: 3}
    - {fileID: 21300000, guid: 7f8c9ebc9eb0c2f44b86571faa2c211b, type: 3}
    - {fileID: 21300000, guid: f2610761f268d604d9e7f34fecd0b489, type: 3}
    - {fileID: 21300000, guid: b2d6a324ec6c0ec41ba219be263f6da5, type: 3}
    - {fileID: 21300000, guid: bab5318af8dfb8e45946d5b4594a98bb, type: 3}
    - {fileID: 21300000, guid: f2d22eb22a4d6d842b8d6f376f015763, type: 3}
    - {fileID: 21300000, guid: e0df29ce979ddd54181c919b54a1cc6d, type: 3}
    - {fileID: 21300000, guid: c9715f5aac5a30e408d8d960b1f06b5d, type: 3}
    - {fileID: 21300000, guid: e2698d5388c4c834cb239926f36aa13f, type: 3}
    - {fileID: 21300000, guid: 57d9027170e76164386f643254ae9870, type: 3}
    - {fileID: 21300000, guid: 8002862df7754c642a9bff5a79f183be, type: 3}
    - {fileID: 21300000, guid: 93da044d38ae7644588ddac0d0e571a0, type: 3}
    - {fileID: 21300000, guid: dbf0b842b3265f94997995328f337826, type: 3}
    - {fileID: 21300000, guid: 7c4be08f48849044aa4b1630c38c21ef, type: 3}
    - {fileID: 21300000, guid: f05d1da6b115df543973f0a1397687e7, type: 3}
    - {fileID: 21300000, guid: 7717139411ac0c34096734ecf8f345e3, type: 3}
    - {fileID: 21300000, guid: f24dd96a036e7c54382f36218398751d, type: 3}
    - {fileID: 21300000, guid: dd463909cbfc1994897d4582eaabdccc, type: 3}
    - {fileID: 21300000, guid: 885d1ccaa057ee84893d5dfcdc9f73fb, type: 3}
    - {fileID: 21300000, guid: c9fdd6d3502cbfc4ebdb02eb7e1ddf70, type: 3}
  m_AnimationClipSettings:
    serializedVersion: 2
    m_AdditiveReferencePoseClip: {fileID: 0}
    m_AdditiveReferencePoseTime: 0
    m_StartTime: 0
    m_StopTime: 0.5
    m_OrientationOffsetY: 0
    m_Level: 0
    m_CycleOffset: 0
    m_HasAdditiveReferencePose: 0
    m_LoopTime: 1
    m_LoopBlend: 0
    m_LoopBlendOrientation: 0
    m_LoopBlendPositionY: 0
    m_LoopBlendPositionXZ: 0
    m_KeepOriginalOrientation: 0
    m_KeepOriginalPositionY: 1
    m_KeepOriginalPositionXZ: 0
    m_HeightFromFeet: 0
    m_Mirror: 0
  m_EditorCurves: []
  m_EulerEditorCurves: []
  m_HasGenericRootTransform: 0
  m_HasMotionFloatCurves: 0
  m_GenerateMotionCurves: 0
  m_Events: []
