%YAML 1.1
%TAG !u! tag:unity3d.com,2011:
--- !u!74 &7400000
AnimationClip:
  m_ObjectHideFlags: 0
  m_CorrespondingSourceObject: {fileID: 0}
  m_PrefabInternal: {fileID: 0}
  m_Name: BobTailWalk
  serializedVersion: 6
  m_Legacy: 0
  m_Compressed: 0
  m_UseHighQualityCurve: 1
  m_RotationCurves: []
  m_CompressedRotationCurves: []
  m_EulerCurves: []
  m_PositionCurves: []
  m_ScaleCurves: []
  m_FloatCurves: []
  m_PPtrCurves:
  - curve:
    - time: 0
      value: {fileID: 21300000, guid: ca8ae9b403bcd2e40b9a732ffe58f557, type: 3}
    - time: 0.016666668
      value: {fileID: 21300000, guid: 950b59c2627b20e43ba44a9c34dd4556, type: 3}
    - time: 0.033333335
      value: {fileID: 21300000, guid: b5f24f22a9080d34ca57e76bf60543a1, type: 3}
    - time: 0.05
      value: {fileID: 21300000, guid: 8e77e0a428612154392ad1a1cb495acd, type: 3}
    - time: 0.06666667
      value: {fileID: 21300000, guid: dd64e36fc4ffba34ea4a87196081192c, type: 3}
    - time: 0.083333336
      value: {fileID: 21300000, guid: ca4b97c2194dc1742b2433a84a85cb03, type: 3}
    - time: 0.1
      value: {fileID: 21300000, guid: 32fad3747bfb26646813c3354629432d, type: 3}
    - time: 0.11666667
      value: {fileID: 21300000, guid: dc57217d2b2f0c240aaefee2d6b11c47, type: 3}
    - time: 0.13333334
      value: {fileID: 21300000, guid: a6ab38c96a56dd84c936f7f6be6afae8, type: 3}
    - time: 0.15
      value: {fileID: 21300000, guid: 6c6858997117200429dab29ed51b4190, type: 3}
    - time: 0.16666667
      value: {fileID: 21300000, guid: 2c66f42ce192a6746b58b1ea48744cb9, type: 3}
    - time: 0.18333334
      value: {fileID: 21300000, guid: 9abb57a89dca0e642938a3ca4711a4eb, type: 3}
    - time: 0.2
      value: {fileID: 21300000, guid: ebf1afb2943ed584788dc024592de97e, type: 3}
    - time: 0.21666667
      value: {fileID: 21300000, guid: 89bc6b2f3baf213489dea796f09726ff, type: 3}
    - time: 0.23333333
      value: {fileID: 21300000, guid: b78fef4cd858db740aaef7c2782cfcc1, type: 3}
    - time: 0.25
      value: {fileID: 21300000, guid: 4e21cf907d873384bacd7c8b4a9ddfa0, type: 3}
    - time: 0.26666668
      value: {fileID: 21300000, guid: 7d555e0cf09689d418d9b16b622f75c1, type: 3}
    - time: 0.28333336
      value: {fileID: 21300000, guid: 6804c61dea10bab42ae20c83cf01e3ac, type: 3}
    - time: 0.30000004
      value: {fileID: 21300000, guid: 778b6dbc8ef97914d96af42ba8514e42, type: 3}
    - time: 0.31666672
      value: {fileID: 21300000, guid: e45394ad9918b6d4991f3dc4cc21ea08, type: 3}
    - time: 0.3333334
      value: {fileID: 21300000, guid: ece96c555ed7e324688d3efed24d54f0, type: 3}
    - time: 0.35000008
      value: {fileID: 21300000, guid: 6c434d197ab44484d95807f3b34124ca, type: 3}
    - time: 0.36666676
      value: {fileID: 21300000, guid: c40c27b69e89d6a4abd9448d6bcb407d, type: 3}
    - time: 0.38333344
      value: {fileID: 21300000, guid: fea894a928b8a444199d975ffdc63b37, type: 3}
    - time: 0.40000013
      value: {fileID: 21300000, guid: 69ed658b0910f394ab649eae07a32232, type: 3}
    - time: 0.4166668
      value: {fileID: 21300000, guid: 3da304c3d0256974cb0e4bfc24747617, type: 3}
    - time: 0.4333335
      value: {fileID: 21300000, guid: 6a085573d85f26240a7fbb95ff23bdb4, type: 3}
    - time: 0.45000017
      value: {fileID: 21300000, guid: 2f24eb6b69da9f5478a4370e5179931c, type: 3}
    - time: 0.46666685
      value: {fileID: 21300000, guid: fe7c2d9291845284cb32d7e5edccf2dc, type: 3}
    - time: 0.48333353
      value: {fileID: 21300000, guid: f8c3e5ec8b2c49a4d9f6255192b3423a, type: 3}
    - time: 0.5000002
      value: {fileID: 21300000, guid: 675aa7e19bc7ebd4783181db41b4de7b, type: 3}
    - time: 0.5166668
      value: {fileID: 21300000, guid: 0cc21c46d49a20e498fad27d923991b2, type: 3}
    - time: 0.5333335
      value: {fileID: 21300000, guid: d5b564bfa8c466f4dbfbb5a4effa6327, type: 3}
    - time: 0.55000013
      value: {fileID: 21300000, guid: 661dfc01a30b59d419493dc0e2bd1d54, type: 3}
    - time: 0.5666668
      value: {fileID: 21300000, guid: 8257a4ccd65475f4e863fbb592d1aa10, type: 3}
    - time: 0.58333343
      value: {fileID: 21300000, guid: 97032db855d6fdd42850651b6594b0e4, type: 3}
    - time: 0.6000001
      value: {fileID: 21300000, guid: b93c97eae6236884b89f8d23418f1059, type: 3}
    - time: 0.61666673
      value: {fileID: 21300000, guid: 28f0fbe33d6677e4b84d8ba401411833, type: 3}
    - time: 0.6333334
      value: {fileID: 21300000, guid: b54e28b2de0602146af957241abb856b, type: 3}
    - time: 0.65000004
      value: {fileID: 21300000, guid: 399c4ff05e7619b41a4e8ca0be4b4208, type: 3}
    - time: 0.6666667
      value: {fileID: 21300000, guid: f49f6f5feb8963d4d9802c44c1a1ab8b, type: 3}
    - time: 0.68333334
      value: {fileID: 21300000, guid: c5aaa69793e45ce4995548dd98eb9620, type: 3}
    - time: 0.7
      value: {fileID: 21300000, guid: 5a2e8ed7fb0621b43a06461540e3aaee, type: 3}
    - time: 0.71666664
      value: {fileID: 21300000, guid: 080df9c944b2fba47bf73e790e42f187, type: 3}
    - time: 0.7333333
      value: {fileID: 21300000, guid: 123422d68a7e56c4b8513b4a7b577e8a, type: 3}
    - time: 0.74999994
      value: {fileID: 21300000, guid: 21ff687cc70b2624686a1a5b2e7bd1c3, type: 3}
    - time: 0.7666666
      value: {fileID: 21300000, guid: 276427424dfd02243b85b3bb96f9962b, type: 3}
    - time: 0.78333324
      value: {fileID: 21300000, guid: bec78b9e681ef7f4d9d8d641582045b8, type: 3}
    - time: 0.7999999
      value: {fileID: 21300000, guid: 4d1c71be896663a4680cc6b75aabf865, type: 3}
    - time: 0.81666654
      value: {fileID: 21300000, guid: 7854937ff9641fc48a6a95b4125ffb1d, type: 3}
    - time: 0.8333332
      value: {fileID: 21300000, guid: bc7ff3a849a5bc5438e540f327b4588c, type: 3}
    - time: 0.84999985
      value: {fileID: 21300000, guid: a9140bb6bb8845147b490c03c09df6c5, type: 3}
    - time: 0.8666665
      value: {fileID: 21300000, guid: 885688dfe58f1594297d1511b7113fc0, type: 3}
    - time: 0.88333315
      value: {fileID: 21300000, guid: 0cee7458e4ad5f84ab0d19d59a97eab1, type: 3}
    - time: 0.8999998
      value: {fileID: 21300000, guid: e1a7f0ed206e92b4c9c5bd7f6ec3c582, type: 3}
    - time: 0.91666645
      value: {fileID: 21300000, guid: ca24810c6faab7440a4251c1a830d83d, type: 3}
    - time: 0.9333331
      value: {fileID: 21300000, guid: 19d10ceee7a31e1479c3e5db2af77a9b, type: 3}
    - time: 0.94999975
      value: {fileID: 21300000, guid: 4c0c33b19caa1bb49b093b84633ca432, type: 3}
    - time: 0.9666664
      value: {fileID: 21300000, guid: 71b1bf7de2a7a454abc442e88043aa99, type: 3}
    - time: 0.98333305
      value: {fileID: 21300000, guid: b5791ea426d575949a93b614b93d0f71, type: 3}
    - time: 0.9999997
      value: {fileID: 21300000, guid: e84bd935b210129448929f14302ad7ad, type: 3}
    - time: 1.0166664
      value: {fileID: 21300000, guid: abd4361d6c69a30418e72c30be242e27, type: 3}
    attribute: m_Sprite
    path: 
    classID: 212
    script: {fileID: 0}
  m_SampleRate: 60
  m_WrapMode: 0
  m_Bounds:
    m_Center: {x: 0, y: 0, z: 0}
    m_Extent: {x: 0, y: 0, z: 0}
  m_ClipBindingConstant:
    genericBindings:
    - serializedVersion: 2
      path: 0
      attribute: 0
      script: {fileID: 0}
      typeID: 212
      customType: 23
      isPPtrCurve: 1
    pptrCurveMapping:
    - {fileID: 21300000, guid: ca8ae9b403bcd2e40b9a732ffe58f557, type: 3}
    - {fileID: 21300000, guid: 950b59c2627b20e43ba44a9c34dd4556, type: 3}
    - {fileID: 21300000, guid: b5f24f22a9080d34ca57e76bf60543a1, type: 3}
    - {fileID: 21300000, guid: 8e77e0a428612154392ad1a1cb495acd, type: 3}
    - {fileID: 21300000, guid: dd64e36fc4ffba34ea4a87196081192c, type: 3}
    - {fileID: 21300000, guid: ca4b97c2194dc1742b2433a84a85cb03, type: 3}
    - {fileID: 21300000, guid: 32fad3747bfb26646813c3354629432d, type: 3}
    - {fileID: 21300000, guid: dc57217d2b2f0c240aaefee2d6b11c47, type: 3}
    - {fileID: 21300000, guid: a6ab38c96a56dd84c936f7f6be6afae8, type: 3}
    - {fileID: 21300000, guid: 6c6858997117200429dab29ed51b4190, type: 3}
    - {fileID: 21300000, guid: 2c66f42ce192a6746b58b1ea48744cb9, type: 3}
    - {fileID: 21300000, guid: 9abb57a89dca0e642938a3ca4711a4eb, type: 3}
    - {fileID: 21300000, guid: ebf1afb2943ed584788dc024592de97e, type: 3}
    - {fileID: 21300000, guid: 89bc6b2f3baf213489dea796f09726ff, type: 3}
    - {fileID: 21300000, guid: b78fef4cd858db740aaef7c2782cfcc1, type: 3}
    - {fileID: 21300000, guid: 4e21cf907d873384bacd7c8b4a9ddfa0, type: 3}
    - {fileID: 21300000, guid: 7d555e0cf09689d418d9b16b622f75c1, type: 3}
    - {fileID: 21300000, guid: 6804c61dea10bab42ae20c83cf01e3ac, type: 3}
    - {fileID: 21300000, guid: 778b6dbc8ef97914d96af42ba8514e42, type: 3}
    - {fileID: 21300000, guid: e45394ad9918b6d4991f3dc4cc21ea08, type: 3}
    - {fileID: 21300000, guid: ece96c555ed7e324688d3efed24d54f0, type: 3}
    - {fileID: 21300000, guid: 6c434d197ab44484d95807f3b34124ca, type: 3}
    - {fileID: 21300000, guid: c40c27b69e89d6a4abd9448d6bcb407d, type: 3}
    - {fileID: 21300000, guid: fea894a928b8a444199d975ffdc63b37, type: 3}
    - {fileID: 21300000, guid: 69ed658b0910f394ab649eae07a32232, type: 3}
    - {fileID: 21300000, guid: 3da304c3d0256974cb0e4bfc24747617, type: 3}
    - {fileID: 21300000, guid: 6a085573d85f26240a7fbb95ff23bdb4, type: 3}
    - {fileID: 21300000, guid: 2f24eb6b69da9f5478a4370e5179931c, type: 3}
    - {fileID: 21300000, guid: fe7c2d9291845284cb32d7e5edccf2dc, type: 3}
    - {fileID: 21300000, guid: f8c3e5ec8b2c49a4d9f6255192b3423a, type: 3}
    - {fileID: 21300000, guid: 675aa7e19bc7ebd4783181db41b4de7b, type: 3}
    - {fileID: 21300000, guid: 0cc21c46d49a20e498fad27d923991b2, type: 3}
    - {fileID: 21300000, guid: d5b564bfa8c466f4dbfbb5a4effa6327, type: 3}
    - {fileID: 21300000, guid: 661dfc01a30b59d419493dc0e2bd1d54, type: 3}
    - {fileID: 21300000, guid: 8257a4ccd65475f4e863fbb592d1aa10, type: 3}
    - {fileID: 21300000, guid: 97032db855d6fdd42850651b6594b0e4, type: 3}
    - {fileID: 21300000, guid: b93c97eae6236884b89f8d23418f1059, type: 3}
    - {fileID: 21300000, guid: 28f0fbe33d6677e4b84d8ba401411833, type: 3}
    - {fileID: 21300000, guid: b54e28b2de0602146af957241abb856b, type: 3}
    - {fileID: 21300000, guid: 399c4ff05e7619b41a4e8ca0be4b4208, type: 3}
    - {fileID: 21300000, guid: f49f6f5feb8963d4d9802c44c1a1ab8b, type: 3}
    - {fileID: 21300000, guid: c5aaa69793e45ce4995548dd98eb9620, type: 3}
    - {fileID: 21300000, guid: 5a2e8ed7fb0621b43a06461540e3aaee, type: 3}
    - {fileID: 21300000, guid: 080df9c944b2fba47bf73e790e42f187, type: 3}
    - {fileID: 21300000, guid: 123422d68a7e56c4b8513b4a7b577e8a, type: 3}
    - {fileID: 21300000, guid: 21ff687cc70b2624686a1a5b2e7bd1c3, type: 3}
    - {fileID: 21300000, guid: 276427424dfd02243b85b3bb96f9962b, type: 3}
    - {fileID: 21300000, guid: bec78b9e681ef7f4d9d8d641582045b8, type: 3}
    - {fileID: 21300000, guid: 4d1c71be896663a4680cc6b75aabf865, type: 3}
    - {fileID: 21300000, guid: 7854937ff9641fc48a6a95b4125ffb1d, type: 3}
    - {fileID: 21300000, guid: bc7ff3a849a5bc5438e540f327b4588c, type: 3}
    - {fileID: 21300000, guid: a9140bb6bb8845147b490c03c09df6c5, type: 3}
    - {fileID: 21300000, guid: 885688dfe58f1594297d1511b7113fc0, type: 3}
    - {fileID: 21300000, guid: 0cee7458e4ad5f84ab0d19d59a97eab1, type: 3}
    - {fileID: 21300000, guid: e1a7f0ed206e92b4c9c5bd7f6ec3c582, type: 3}
    - {fileID: 21300000, guid: ca24810c6faab7440a4251c1a830d83d, type: 3}
    - {fileID: 21300000, guid: 19d10ceee7a31e1479c3e5db2af77a9b, type: 3}
    - {fileID: 21300000, guid: 4c0c33b19caa1bb49b093b84633ca432, type: 3}
    - {fileID: 21300000, guid: 71b1bf7de2a7a454abc442e88043aa99, type: 3}
    - {fileID: 21300000, guid: b5791ea426d575949a93b614b93d0f71, type: 3}
    - {fileID: 21300000, guid: e84bd935b210129448929f14302ad7ad, type: 3}
    - {fileID: 21300000, guid: abd4361d6c69a30418e72c30be242e27, type: 3}
  m_AnimationClipSettings:
    serializedVersion: 2
    m_AdditiveReferencePoseClip: {fileID: 0}
    m_AdditiveReferencePoseTime: 0
    m_StartTime: 0
    m_StopTime: 1.0333331
    m_OrientationOffsetY: 0
    m_Level: 0
    m_CycleOffset: 0
    m_HasAdditiveReferencePose: 0
    m_LoopTime: 1
    m_LoopBlend: 0
    m_LoopBlendOrientation: 0
    m_LoopBlendPositionY: 0
    m_LoopBlendPositionXZ: 0
    m_KeepOriginalOrientation: 0
    m_KeepOriginalPositionY: 1
    m_KeepOriginalPositionXZ: 0
    m_HeightFromFeet: 0
    m_Mirror: 0
  m_EditorCurves: []
  m_EulerEditorCurves: []
  m_HasGenericRootTransform: 0
  m_HasMotionFloatCurves: 0
  m_GenerateMotionCurves: 0
  m_Events: []
